{
	"compilerOptions": {
		"baseUrl": ".",
		"checkJs": true,
		"moduleResolution": "node",
		"paths": {
			"httpmethod": ["."],
			"httpmethod/*": ["./*"]
		},
		"target": "es5"
	},
	"exclude": ["node_modules", "dist", "demo"]
}
